{
  "posts": [
    {
      "userPhoto": "https://api.androidhive.info/images/nature/david.jpg",
      "userName": "milen_thebrowbar",
      "userLocation": "The Brow Bar Kharkov",
      "photos": [
        "https://api.androidhive.info/images/nature/david1.jpg",
        "https://api.androidhive.info/images/nature/david.jpg"
      ],
      "likesCount": 95,
      "likes": "milena_trump, lenka_taranets_tensnailkitchen",
      "lastVisit": "3 hours ago",
      "comments": [
        {
          "comment_author": "milen_thebrowbar",
          "commentText": "Beauty @anna_zavadskaya, @covernumberone#thebrowbarkharkov#makeup#inlove#thebrowbarkharkov"
        }
      ]
    },
    {
      "userPhoto": "https://api.androidhive.info/images/nature/david.jpg",
      "userName": "milen_thebrowbar",
      "userLocation": "Business center Continent",
      "photos": [
        "https://api.androidhive.info/images/nature/david1.jpg",
        "https://api.androidhive.info/images/nature/david.jpg",
        "https://api.androidhive.info/images/nature/david1.jpg"
      ],
      "likesCount": 34,
      "likes": "robby.born, rita_vine, miss.mira",
      "lastVisit": "12 hours ago",
      "comments": [
        {
          "commentAuthorName": "milen_thebrowbar",
          "commentText": "Beauty @anna_zavadskaya 💙🌍💫 @covernumberone #thebrowbarkharkov #makeup #inlove #thebrowbarkharkov"
        },
        {
          "commentAuthorName": "donald_trido",
          "commentText": "@miran What do you think about it?👆🏻"
        }
      ]
    }
  ]
}